29	30	121	31	79	1	13	#	#	0	0	10	108
11	12	121	13	79	1	13	#	#	0	0	10	108
25	#	#	21	42	1	13	21	60	1	13	9	107
32	#	#	21	24	1	13	#	#	0	0	17	72
33	34	116	35	52	1	13	#	#	0	0	9	107
1	2	121	3	78	1	13	#	#	0	0	11	108
36	#	#	37	78	0	-4	#	#	0	0	12	109
22	23	122	24	78	1	13	#	#	0	0	#	107
5	6	121	7	80	0	-4	#	#	0	0	15	108
38	39	107	40	79	1	13	#	#	0	0	8	107
26	27	123	28	82	0	-4	#	#	0	0	13	110
41	42	121	43	80	0	-4	#	#	0	0	11	108
20	#	#	21	59	1	13	#	#	0	0	8	107
17	18	127	19	58	0	-4	#	#	0	0	10	108
14	15	115	16	54	0	-4	#	#	0	0	9	107
8	9	121	10	80	0	-4	#	#	0	0	10	108
