<?xml version="1.0" encoding="utf-8"?>
<COLLADA version="1.4.0" xmlns="http://www.collada.org/2005/11/COLLADASchema">
	<asset>
		<contributor>
			<author>Illusoft Collada 1.4.0 plugin for Blender - http://colladablender.illusoft.com</author>
			<authoring_tool>Blender v:249 - Illusoft Collada Exporter v:0.3.162</authoring_tool>
			<comments></comments>
			<copyright></copyright>
			<source_data>file:///home/daniel/bottle.blend</source_data>
		</contributor>
		<created>2011-03-30T23:20:41.056733</created>
		<modified>2011-03-30T23:20:41.056831</modified>
		<unit meter="0.01" name="centimeter"/>
		<up_axis>Z_UP</up_axis>
	</asset>
	<library_cameras>
		<camera id="Camera-Camera" name="Camera-Camera">
			<optics>
				<technique_common>
					<perspective>
						<yfov>49.13434</yfov>
						<znear>0.1</znear>
						<zfar>100.0</zfar>
					</perspective>
				</technique_common>
			</optics>
		</camera>
	</library_cameras>
	<library_effects>
		<effect id="info_png-fx" name="info_png-fx">
			<profile_COMMON>
				<newparam sid="info_png-surface">
					<surface type="2D">
						<init_from>info_png-img</init_from>
						<format>A8R8G8B8</format>
					</surface>
				</newparam>
				<newparam sid="info_png-sampler">
					<sampler2D>
						<source>info_png-surface</source>
						<minfilter>LINEAR_MIPMAP_LINEAR</minfilter>
						<magfilter>LINEAR</magfilter>
					</sampler2D>
				</newparam>
				<technique sid="blender">
					<lambert>
						<diffuse>
							<texture texcoord="CHANNEL1" texture="info_png-sampler"/>
						</diffuse>
					</lambert>
				</technique>
			</profile_COMMON>
		</effect>
		<effect id="bigCola_png_001-fx" name="bigCola_png_001-fx">
			<profile_COMMON>
				<newparam sid="bigCola_png_001-surface">
					<surface type="2D">
						<init_from>bigCola_png_001-img</init_from>
						<format>A8R8G8B8</format>
					</surface>
				</newparam>
				<newparam sid="bigCola_png_001-sampler">
					<sampler2D>
						<source>bigCola_png_001-surface</source>
						<minfilter>LINEAR_MIPMAP_LINEAR</minfilter>
						<magfilter>LINEAR</magfilter>
					</sampler2D>
				</newparam>
				<technique sid="blender">
					<lambert>
						<diffuse>
							<texture texcoord="CHANNEL1" texture="bigCola_png_001-sampler"/>
						</diffuse>
					</lambert>
				</technique>
			</profile_COMMON>
		</effect>
		<effect id="vasco_png-fx" name="vasco_png-fx">
			<profile_COMMON>
				<newparam sid="vasco_png-surface">
					<surface type="2D">
						<init_from>vasco_png-img</init_from>
						<format>A8R8G8B8</format>
					</surface>
				</newparam>
				<newparam sid="vasco_png-sampler">
					<sampler2D>
						<source>vasco_png-surface</source>
						<minfilter>LINEAR_MIPMAP_LINEAR</minfilter>
						<magfilter>LINEAR</magfilter>
					</sampler2D>
				</newparam>
				<technique sid="blender">
					<lambert>
						<diffuse>
							<texture texcoord="CHANNEL1" texture="vasco_png-sampler"/>
						</diffuse>
					</lambert>
				</technique>
			</profile_COMMON>
		</effect>
	</library_effects>
	<library_images>
		<image id="info_png-img" name="info_png-img">
			<init_from>info.png</init_from>
		</image>
		<image id="bigCola_png_001-img" name="bigCola_png_001-img">
			<init_from>bigcola.png</init_from>
		</image>
		<image id="vasco_png-img" name="vasco_png-img">
			<init_from>../downloads/vasco.png</init_from>
		</image>
	</library_images>
	<library_lights>
		<light id="Spot" name="Spot">
			<technique_common>
				<point>
					<color>1.00000 1.00000 1.00000</color>
					<constant_attenuation>1.0</constant_attenuation>
					<linear_attenuation>0.0</linear_attenuation>
					<quadratic_attenuation>0.0</quadratic_attenuation>
				</point>
			</technique_common>
		</light>
	</library_lights>
	<library_materials>
		<material id="info_png" name="info_png">
			<instance_effect url="#info_png-fx"/>
		</material>
		<material id="bigCola_png_001" name="bigCola_png_001">
			<instance_effect url="#bigCola_png_001-fx"/>
		</material>
		<material id="vasco_png" name="vasco_png">
			<instance_effect url="#vasco_png-fx"/>
		</material>
	</library_materials>
	<library_geometries>
		<geometry id="Cylinder_001" name="Cylinder_001">
			<mesh>
				<source id="Cylinder_001-Position">
					<float_array count="342" id="Cylinder_001-Position-array">0.74629 0.69290 -0.07091 0.96306 0.36848 -0.07091 1.03918 -0.01421 -0.07091 0.96306 -0.39689 -0.07091 0.74629 -0.72131 -0.07091 0.42186 -0.93809 -0.07091 0.03918 -1.01421 -0.07091 -0.34350 -0.93809 -0.07091 -0.66793 -0.72131 -0.07091 -0.88470 -0.39689 -0.07091 -0.96082 -0.01421 -0.07091 -0.88470 0.36848 -0.07091 -0.66793 0.69290 -0.07091 -0.34350 0.90967 -0.07091 0.03918 0.98579 -0.07091 0.42186 0.90967 -0.07091 0.74629 0.69290 1.92909 0.96306 0.36847 1.92909 1.03918 -0.01421 1.92909 0.96306 -0.39689 1.92909 0.74628 -0.72132 1.92909 0.42186 -0.93809 1.92909 0.03918 -1.01421 1.92909 -0.34351 -0.93809 1.92909 -0.66793 -0.72131 1.92909 -0.88470 -0.39689 1.92909 -0.96082 -0.01421 1.92909 -0.88470 0.36848 1.92909 -0.66793 0.69290 1.92909 -0.34350 0.90967 1.92909 0.03918 0.98579 1.92909 0.42187 0.90967 1.92909 0.03918 -0.01421 -0.07091 0.74629 0.69290 3.31307 0.42187 0.90967 3.31307 0.03918 0.98579 3.31307 -0.34350 0.90967 3.31307 -0.66793 0.69290 3.31307 -0.88470 0.36848 3.31307 -0.96082 -0.01421 3.31307 -0.88470 -0.39689 3.31307 -0.66793 -0.72131 3.31307 -0.34351 -0.93809 3.31307 0.03918 -1.01421 3.31307 0.42186 -0.93809 3.31307 0.74628 -0.72132 3.31307 0.96306 -0.39689 3.31307 1.03918 -0.01421 3.31307 0.96306 0.36847 3.31307 0.74629 0.69290 4.84872 0.96306 0.36847 4.84872 1.03918 -0.01421 4.84872 0.96306 -0.39689 4.84872 0.74628 -0.72132 4.84872 0.42186 -0.93809 4.84872 0.03918 -1.01421 4.84872 -0.34351 -0.93809 4.84872 -0.66793 -0.72131 4.84872 -0.88470 -0.39689 4.84872 -0.96082 -0.01421 4.84872 -0.88470 0.36848 4.84872 -0.66793 0.69290 4.84872 -0.34350 0.90967 4.84872 0.03918 0.98579 4.84872 0.42187 0.90967 4.84872 0.16417 0.28754 6.09806 0.27012 0.21674 6.09806 0.03918 0.31240 6.09806 -0.08581 0.28754 6.09806 -0.19177 0.21674 6.09806 -0.26257 0.11078 6.09806 -0.28743 -0.01421 6.09806 -0.26257 -0.13919 6.09806 -0.19177 -0.24515 6.09806 -0.08581 -0.31595 6.09806 0.03918 -0.34081 6.09806 0.16417 -0.31595 6.09806 0.27012 -0.24515 6.09806 0.34092 -0.13919 6.09806 0.36578 -0.01421 6.09806 0.34092 0.11078 6.09806 0.27012 0.21674 7.83981 0.34092 0.11078 7.83981 0.36578 -0.01421 7.83981 0.34092 -0.13919 7.83981 0.27012 -0.24515 7.83981 0.16417 -0.31595 7.83981 0.03918 -0.34081 7.83981 -0.08581 -0.31595 7.83981 -0.19177 -0.24515 7.83981 -0.26257 -0.13919 7.83981 -0.28743 -0.01421 7.83981 -0.26257 0.11078 7.83981 -0.19177 0.21674 7.83981 -0.08581 0.28754 7.83981 0.03918 0.31240 7.83981 0.16417 0.28754 7.83981 0.27012 0.21674 7.91898 0.16417 0.28754 7.91898 0.03918 0.31240 7.91898 -0.08581 0.28754 7.91898 -0.19177 0.21674 7.91898 -0.26257 0.11078 7.91898 -0.28743 -0.01421 7.91898 -0.26257 -0.13919 7.91898 -0.19177 -0.24515 7.91898 -0.08581 -0.31595 7.91898 0.03918 -0.34081 7.91898 0.16417 -0.31595 7.91898 0.27012 -0.24515 7.91898 0.34092 -0.13919 7.91898 0.36578 -0.01421 7.91898 0.34092 0.11078 7.91898 0.03918 -0.01421 7.91898</float_array>
					<technique_common>
						<accessor count="114" source="#Cylinder_001-Position-array" stride="3">
							<param type="float" name="X"></param>
							<param type="float" name="Y"></param>
							<param type="float" name="Z"></param>
						</accessor>
					</technique_common>
				</source>
				<source id="Cylinder_001-Normals">
					<float_array count="384" id="Cylinder_001-Normals-array">0.00000 0.00000 -1.00000 0.00000 0.00000 -1.00000 0.00000 0.00000 -1.00000 -0.00000 0.00000 -1.00000 0.00000 0.00000 -1.00000 -0.00000 0.00000 -1.00000 0.00000 0.00000 -1.00000 -0.00000 0.00000 -1.00000 0.00000 0.00000 -1.00000 -0.00000 0.00000 -1.00000 -0.00000 0.00000 -1.00000 -0.00000 0.00000 -1.00000 -0.00000 0.00000 -1.00000 0.00000 0.00000 -1.00000 -0.00000 0.00000 -1.00000 0.00000 0.00000 -1.00000 0.83147 0.55557 0.00000 0.98079 0.19509 0.00000 0.98079 -0.19509 -0.00000 0.83147 -0.55557 -0.00000 0.55557 -0.83147 -0.00000 0.19509 -0.98079 -0.00000 -0.19509 -0.98079 -0.00000 -0.55557 -0.83147 -0.00000 -0.83147 -0.55557 0.00000 -0.98079 -0.19509 -0.00000 -0.98079 0.19509 0.00000 -0.83147 0.55557 0.00000 -0.55557 0.83147 0.00000 -0.19509 0.98079 0.00000 0.19509 0.98078 0.00000 0.55557 0.83147 -0.00000 0.55557 0.83147 0.00000 0.19509 0.98078 0.00000 -0.19509 0.98079 0.00000 -0.55557 0.83147 0.00000 -0.83147 0.55557 0.00000 -0.98078 0.19509 0.00000 -0.98079 -0.19509 0.00000 -0.83147 -0.55557 0.00000 -0.55557 -0.83147 0.00000 -0.19509 -0.98078 0.00000 0.19509 -0.98079 0.00000 0.55557 -0.83147 0.00000 0.83147 -0.55557 0.00000 0.98079 -0.19509 0.00000 0.98079 0.19509 0.00000 0.83147 0.55557 0.00000 0.83147 0.55557 0.00000 0.98079 0.19509 0.00000 0.98079 -0.19509 0.00000 0.83147 -0.55557 0.00000 0.55557 -0.83147 0.00000 0.19509 -0.98079 0.00000 -0.19509 -0.98078 0.00000 -0.55557 -0.83147 0.00000 -0.83147 -0.55557 0.00000 -0.98079 -0.19509 0.00000 -0.98078 0.19509 0.00000 -0.83147 0.55557 0.00000 -0.55557 0.83147 0.00000 -0.19509 0.98079 0.00000 0.19509 0.98078 0.00000 0.55557 0.83147 0.00000 0.49116 0.73508 0.46736 0.17248 0.86708 0.46736 -0.17247 0.86708 0.46736 -0.49116 0.73508 0.46736 -0.73508 0.49116 0.46736 -0.86708 0.17248 0.46736 -0.86708 -0.17247 0.46736 -0.73508 -0.49116 0.46736 -0.49116 -0.73508 0.46736 -0.17247 -0.86708 0.46736 0.17247 -0.86708 0.46736 0.49116 -0.73508 0.46736 0.73508 -0.49116 0.46736 0.86708 -0.17247 0.46736 0.86708 0.17247 0.46736 0.73508 0.49116 0.46736 0.83147 0.55557 0.00000 0.98079 0.19509 0.00000 0.98079 -0.19509 0.00000 0.83147 -0.55557 0.00000 0.55557 -0.83147 0.00000 0.19509 -0.98079 0.00000 -0.19509 -0.98078 0.00000 -0.55557 -0.83147 0.00000 -0.83147 -0.55557 0.00000 -0.98079 -0.19509 0.00000 -0.98078 0.19509 0.00000 -0.83147 0.55557 0.00000 -0.55557 0.83147 0.00000 -0.19509 0.98079 0.00000 0.19509 0.98078 0.00000 0.55557 0.83147 0.00000 0.55557 0.83147 0.00000 0.19509 0.98078 0.00000 -0.19509 0.98079 0.00000 -0.55557 0.83147 0.00000 -0.83147 0.55557 0.00000 -0.98078 0.19509 0.00000 -0.98079 -0.19509 0.00000 -0.83147 -0.55557 0.00000 -0.55557 -0.83147 0.00000 -0.19509 -0.98078 0.00000 0.19509 -0.98079 0.00000 0.55557 -0.83147 0.00000 0.83147 -0.55557 0.00000 0.98079 -0.19509 0.00000 0.98079 0.19509 0.00000 0.83147 0.55557 0.00000 0.00000 0.00000 1.00000 0.00000 0.00000 1.00000 -0.00000 0.00000 1.00000 -0.00000 0.00000 1.00000 -0.00000 0.00000 1.00000 -0.00000 0.00000 1.00000 -0.00000 -0.00000 1.00000 0.00000 -0.00000 1.00000 0.00000 -0.00000 1.00000 0.00000 -0.00000 1.00000 0.00000 -0.00000 1.00000 0.00000 0.00000 1.00000 0.00000 0.00000 1.00000 0.00000 0.00000 1.00000 0.00000 0.00000 1.00000 0.00000 0.00000 1.00000</float_array>
					<technique_common>
						<accessor count="128" source="#Cylinder_001-Normals-array" stride="3">
							<param type="float" name="X"></param>
							<param type="float" name="Y"></param>
							<param type="float" name="Z"></param>
						</accessor>
					</technique_common>
				</source>
				<source id="Cylinder_001-UV">
					<float_array count="1344" id="Cylinder_001-UV-array">0.00000 0.00000 1.00000 0.00000 1.00000 1.00000 0.00000 0.00000 1.00000 0.00000 1.00000 1.00000 0.00000 0.00000 1.00000 0.00000 1.00000 1.00000 0.00000 0.00000 1.00000 0.00000 1.00000 1.00000 0.00000 0.00000 1.00000 0.00000 1.00000 1.00000 0.00000 0.00000 1.00000 0.00000 1.00000 1.00000 0.00000 0.00000 1.00000 0.00000 1.00000 1.00000 0.00000 0.00000 1.00000 0.00000 1.00000 1.00000 0.00000 0.00000 1.00000 0.00000 1.00000 1.00000 0.00000 0.00000 1.00000 0.00000 1.00000 1.00000 0.00000 0.00000 1.00000 0.00000 1.00000 1.00000 0.00000 0.00000 1.00000 0.00000 1.00000 1.00000 0.00000 0.00000 1.00000 0.00000 1.00000 1.00000 0.00000 0.00000 1.00000 0.00000 1.00000 1.00000 0.00000 0.00000 1.00000 0.00000 1.00000 1.00000 0.00000 0.00000 1.00000 0.00000 1.00000 1.00000 0.00000 0.00000 1.00000 0.00000 1.00000 1.00000 1.00000 1.00000 0.00000 1.00000 0.00000 0.00000 0.00000 0.00000 1.00000 0.00000 1.00000 1.00000 1.00000 1.00000 0.00000 1.00000 0.00000 0.00000 0.00000 0.00000 1.00000 0.00000 1.00000 1.00000 1.00000 1.00000 0.00000 1.00000 0.00000 0.00000 0.00000 0.00000 1.00000 0.00000 1.00000 1.00000 1.00000 1.00000 0.00000 1.00000 0.00000 0.00000 0.00000 0.00000 1.00000 0.00000 1.00000 1.00000 1.00000 1.00000 0.00000 1.00000 0.00000 0.00000 0.00000 0.00000 1.00000 0.00000 1.00000 1.00000 1.00000 1.00000 0.00000 1.00000 0.00000 0.00000 0.00000 0.00000 1.00000 0.00000 1.00000 1.00000 1.00000 1.00000 0.00000 1.00000 0.00000 0.00000 0.00000 0.00000 1.00000 0.00000 1.00000 1.00000 1.00000 1.00000 0.00000 1.00000 0.00000 0.00000 0.00000 0.00000 1.00000 0.00000 1.00000 1.00000 1.00000 1.00000 0.00000 1.00000 0.00000 0.00000 0.00000 0.00000 1.00000 0.00000 1.00000 1.00000 1.00000 1.00000 0.00000 1.00000 0.00000 0.00000 0.00000 0.00000 1.00000 0.00000 1.00000 1.00000 1.00000 1.00000 0.00000 1.00000 0.00000 0.00000 0.00000 0.00000 1.00000 0.00000 1.00000 1.00000 1.00000 1.00000 0.00000 1.00000 0.00000 0.00000 0.00000 0.00000 1.00000 0.00000 1.00000 1.00000 1.00000 1.00000 0.00000 1.00000 0.00000 0.00000 0.00000 0.00000 1.00000 0.00000 1.00000 1.00000 1.00000 1.00000 0.00000 1.00000 0.00000 0.00000 0.00000 0.00000 1.00000 0.00000 1.00000 1.00000 1.00000 1.00000 0.00000 1.00000 0.00000 0.00000 0.00000 0.00000 1.00000 0.00000 1.00000 1.00000 1.00000 1.00000 0.00000 1.00000 0.00000 0.00000 0.00000 0.00000 1.00000 0.00000 1.00000 1.00000 1.00000 1.00000 0.00000 1.00000 0.00000 0.00000 0.00000 0.00000 1.00000 0.00000 1.00000 1.00000 1.00000 1.00000 0.00000 1.00000 0.00000 0.00000 0.00000 0.00000 1.00000 0.00000 1.00000 1.00000 1.00000 1.00000 0.00000 1.00000 0.00000 0.00000 0.00000 0.00000 1.00000 0.00000 1.00000 1.00000 1.00000 1.00000 0.00000 1.00000 0.00000 0.00000 0.00000 0.00000 1.00000 0.00000 1.00000 1.00000 1.00000 1.00000 0.00000 1.00000 0.00000 0.00000 0.00000 0.00000 1.00000 0.00000 1.00000 1.00000 1.00000 1.00000 0.00000 1.00000 0.00000 0.00000 0.00000 0.00000 1.00000 0.00000 1.00000 1.00000 1.00000 1.00000 0.00000 1.00000 0.00000 0.00000 0.00000 0.00000 1.00000 0.00000 1.00000 1.00000 1.00000 1.00000 0.00000 1.00000 0.00000 0.00000 0.00000 0.00000 1.00000 0.00000 1.00000 1.00000 1.00000 1.00000 0.00000 1.00000 0.00000 0.00000 0.00000 0.00000 1.00000 0.00000 1.00000 1.00000 1.00000 1.00000 0.00000 1.00000 0.00000 0.00000 0.00000 0.00000 1.00000 0.00000 1.00000 1.00000 1.00000 1.00000 0.00000 1.00000 0.00000 0.00000 0.00000 0.00000 1.00000 0.00000 1.00000 1.00000 1.00000 1.00000 0.00000 1.00000 0.00000 0.00000 0.00000 0.00000 1.00000 0.00000 1.00000 1.00000 1.00000 1.00000 0.00000 1.00000 0.00000 0.00000 0.00000 0.00000 1.00000 0.00000 1.00000 1.00000 1.00000 1.00000 0.00000 1.00000 0.00000 0.00000 0.00000 0.00000 1.00000 0.00000 1.00000 1.00000 1.00000 1.00000 0.00000 1.00000 0.00000 0.00000 0.00000 0.00000 1.00000 0.00000 1.00000 1.00000 1.00000 1.00000 0.00000 1.00000 0.00000 0.00000 0.00000 0.00000 1.00000 0.00000 1.00000 1.00000 1.00000 1.00000 0.00000 1.00000 0.00000 0.00000 0.00000 0.00000 1.00000 0.00000 1.00000 1.00000 1.00000 1.00000 0.00000 1.00000 0.00000 0.00000 0.00000 0.00000 1.00000 0.00000 1.00000 1.00000 1.00000 1.00000 0.00000 1.00000 0.00000 0.00000 0.00000 0.00000 1.00000 0.00000 1.00000 1.00000 1.00000 1.00000 0.00000 1.00000 0.00000 0.00000 0.00000 0.00000 1.00000 0.00000 1.00000 1.00000 1.00000 1.00000 0.00000 1.00000 0.00000 0.00000 0.00000 0.00000 1.00000 0.00000 1.00000 1.00000 1.00000 1.00000 0.00000 1.00000 0.00000 0.00000 0.00000 0.00000 1.00000 0.00000 1.00000 1.00000 1.00000 1.00000 0.00000 1.00000 0.00000 0.00000 0.00000 0.00000 1.00000 0.00000 1.00000 1.00000 1.00000 1.00000 0.00000 1.00000 0.00000 0.00000 0.00000 0.00000 1.00000 0.00000 1.00000 1.00000 1.00000 1.00000 0.00000 1.00000 0.00000 0.00000 0.00000 0.00000 1.00000 0.00000 1.00000 1.00000 1.00000 1.00000 0.00000 1.00000 0.00000 0.00000 0.00000 0.00000 1.00000 0.00000 1.00000 1.00000 1.00000 1.00000 0.00000 1.00000 0.00000 0.00000 0.00000 0.00000 1.00000 0.00000 1.00000 1.00000 1.00000 1.00000 0.00000 1.00000 0.00000 0.00000 0.00000 0.00000 1.00000 0.00000 1.00000 1.00000 1.00000 1.00000 0.00000 1.00000 0.00000 0.00000 0.00000 0.00000 1.00000 0.00000 1.00000 1.00000 1.00000 1.00000 0.00000 1.00000 0.00000 0.00000 0.00000 0.00000 1.00000 0.00000 1.00000 1.00000 1.00000 1.00000 0.00000 1.00000 0.00000 0.00000 0.00000 0.00000 1.00000 0.00000 1.00000 1.00000 1.00000 1.00000 0.00000 1.00000 0.00000 0.00000 0.00000 0.00000 1.00000 0.00000 1.00000 1.00000 1.00000 1.00000 0.00000 1.00000 0.00000 0.00000 0.00000 0.00000 1.00000 0.00000 1.00000 1.00000 1.00000 1.00000 0.00000 1.00000 0.00000 0.00000 0.00000 0.00000 1.00000 0.00000 1.00000 1.00000 1.00000 1.00000 0.00000 1.00000 0.00000 0.00000 0.00000 0.00000 1.00000 0.00000 1.00000 1.00000 1.00000 1.00000 0.00000 1.00000 0.00000 0.00000 0.00000 0.00000 1.00000 0.00000 1.00000 1.00000 1.00000 1.00000 0.00000 1.00000 0.00000 0.00000 0.00000 0.00000 1.00000 0.00000 1.00000 1.00000 1.00000 1.00000 0.00000 1.00000 0.00000 0.00000 0.00000 0.00000 1.00000 0.00000 1.00000 1.00000 1.00000 1.00000 0.00000 1.00000 0.00000 0.00000 0.00000 0.00000 1.00000 0.00000 1.00000 1.00000 1.00000 1.00000 0.00000 1.00000 0.00000 0.00000 0.00000 0.00000 1.00000 0.00000 1.00000 1.00000 1.00000 1.00000 0.00000 1.00000 0.00000 0.00000 0.00000 0.00000 1.00000 0.00000 1.00000 1.00000 1.00000 1.00000 0.00000 1.00000 0.00000 0.00000 0.00000 0.00000 1.00000 0.00000 1.00000 1.00000 1.00000 1.00000 0.00000 1.00000 0.00000 0.00000 0.00000 0.00000 1.00000 0.00000 1.00000 1.00000 1.00000 1.00000 0.00000 1.00000 0.00000 0.00000 0.00000 0.00000 1.00000 0.00000 1.00000 1.00000 1.00000 1.00000 0.00000 1.00000 0.00000 0.00000 0.00000 0.00000 1.00000 0.00000 1.00000 1.00000 1.00000 1.00000 0.00000 1.00000 0.00000 0.00000 0.00000 0.00000 1.00000 0.00000 1.00000 1.00000 1.00000 1.00000 0.00000 1.00000 0.00000 0.00000 0.00000 0.00000 1.00000 0.00000 1.00000 1.00000 1.00000 1.00000 0.00000 1.00000 0.00000 0.00000 0.00000 0.00000 1.00000 0.00000 1.00000 1.00000 1.00000 1.00000 0.00000 1.00000 0.00000 0.00000 0.00000 0.00000 1.00000 0.00000 1.00000 1.00000 1.00000 1.00000 0.00000 1.00000 0.00000 0.00000 0.00000 0.00000 1.00000 0.00000 1.00000 1.00000 1.00000 1.00000 0.00000 1.00000 0.00000 0.00000 0.00000 0.00000 1.00000 0.00000 1.00000 1.00000 1.00000 1.00000 0.00000 1.00000 0.00000 0.00000 0.00000 0.00000 1.00000 0.00000 1.00000 1.00000 1.00000 1.00000 0.00000 1.00000 0.00000 0.00000 0.00000 0.00000 1.00000 0.00000 1.00000 1.00000 1.00000 1.00000 0.00000 1.00000 0.00000 0.00000 0.00000 0.00000 1.00000 0.00000 1.00000 1.00000 1.00000 1.00000 0.00000 1.00000 0.00000 0.00000 0.00000 0.00000 1.00000 0.00000 1.00000 1.00000 1.00000 1.00000 0.00000 1.00000 0.00000 0.00000 0.00000 0.00000 1.00000 0.00000 1.00000 1.00000 1.00000 1.00000 0.00000 1.00000 0.00000 0.00000 0.00000 0.00000 1.00000 0.00000 1.00000 1.00000 1.00000 1.00000 0.00000 1.00000 0.00000 0.00000 0.00000 0.00000 1.00000 0.00000 1.00000 1.00000 1.00000 1.00000 0.00000 1.00000 0.00000 0.00000 0.00000 0.00000 1.00000 0.00000 1.00000 1.00000 1.00000 1.00000 0.00000 1.00000 0.00000 0.00000 0.00000 0.00000 1.00000 0.00000 1.00000 1.00000 1.00000 1.00000 0.00000 1.00000 0.00000 0.00000 0.00000 0.00000 1.00000 0.00000 1.00000 1.00000 1.00000 1.00000 0.00000 1.00000 0.00000 0.00000 0.00000 0.00000 1.00000 0.00000 1.00000 1.00000 1.00000 1.00000 0.00000 1.00000 0.00000 0.00000 0.00000 0.00000 1.00000 0.00000 1.00000 1.00000 1.00000 1.00000 0.00000 1.00000 0.00000 0.00000 0.00000 0.00000 1.00000 0.00000 1.00000 1.00000 1.00000 1.00000 0.00000 1.00000 0.00000 0.00000 0.00000 0.00000 1.00000 0.00000 1.00000 1.00000 1.00000 1.00000 0.00000 1.00000 0.00000 0.00000 0.00000 0.00000 1.00000 0.00000 1.00000 1.00000 1.00000 1.00000 0.00000 1.00000 0.00000 0.00000 0.00000 0.00000 1.00000 0.00000 1.00000 1.00000 1.00000 1.00000 0.00000 1.00000 0.00000 0.00000 0.00000 0.00000 1.00000 0.00000 1.00000 1.00000 1.00000 1.00000 0.00000 1.00000 0.00000 0.00000 0.00000 0.00000 1.00000 0.00000 1.00000 1.00000 1.00000 1.00000 0.00000 1.00000 0.00000 0.00000 0.00000 0.00000 1.00000 0.00000 1.00000 1.00000 1.00000 1.00000 0.00000 1.00000 0.00000 0.00000 0.00000 0.00000 1.00000 0.00000 1.00000 1.00000 1.00000 1.00000 0.00000 1.00000 0.00000 0.00000 0.00000 0.00000 1.00000 0.00000 1.00000 1.00000 1.00000 1.00000 0.00000 1.00000 0.00000 0.00000 0.00000 0.00000 1.00000 0.00000 1.00000 1.00000 1.00000 1.00000 0.00000 1.00000 0.00000 0.00000 0.00000 0.00000 1.00000 0.00000 1.00000 1.00000 1.00000 1.00000 0.00000 1.00000 0.00000 0.00000 0.00000 0.00000 1.00000 0.00000 1.00000 1.00000 1.00000 1.00000 0.00000 1.00000 0.00000 0.00000 0.00000 0.00000 1.00000 0.00000 1.00000 1.00000 1.00000 1.00000 0.00000 1.00000 0.00000 0.00000 0.00000 0.00000 1.00000 0.00000 1.00000 1.00000 1.00000 1.00000 0.00000 1.00000 0.00000 0.00000 0.00000 0.00000 1.00000 0.00000 1.00000 1.00000 1.00000 1.00000 0.00000 1.00000 0.00000 0.00000 0.00000 0.00000 1.00000 0.00000 1.00000 1.00000 1.00000 1.00000 0.00000 1.00000 0.00000 0.00000 0.00000 0.00000 1.00000 0.00000 1.00000 1.00000 0.00000 0.00000 1.00000 0.00000 1.00000 1.00000 0.00000 0.00000 1.00000 0.00000 1.00000 1.00000 0.00000 0.00000 1.00000 0.00000 1.00000 1.00000 0.00000 0.00000 1.00000 0.00000 1.00000 1.00000 0.00000 0.00000 1.00000 0.00000 1.00000 1.00000 0.00000 0.00000 1.00000 0.00000 1.00000 1.00000 0.00000 0.00000 1.00000 0.00000 1.00000 1.00000 0.00000 0.00000 1.00000 0.00000 1.00000 1.00000 0.00000 0.00000 1.00000 0.00000 1.00000 1.00000 0.00000 0.00000 1.00000 0.00000 1.00000 1.00000 0.00000 0.00000 1.00000 0.00000 1.00000 1.00000 0.00000 0.00000 1.00000 0.00000 1.00000 1.00000 0.00000 0.00000 1.00000 0.00000 1.00000 1.00000 0.00000 0.00000 1.00000 0.00000 1.00000 1.00000 0.00000 0.00000 1.00000 0.00000 1.00000 1.00000</float_array>
					<technique_common>
						<accessor count="672" source="#Cylinder_001-UV-array" stride="2">
							<param type="float" name="S"></param>
							<param type="float" name="T"></param>
						</accessor>
					</technique_common>
				</source>
				<vertices id="Cylinder_001-Vertex">
					<input semantic="POSITION" source="#Cylinder_001-Position"/>
				</vertices>
				<triangles count="2" material="info_png">
					<input offset="0" semantic="VERTEX" source="#Cylinder_001-Vertex"/>
					<input offset="1" semantic="NORMAL" source="#Cylinder_001-Normals"/>
					<input offset="2" semantic="TEXCOORD" source="#Cylinder_001-UV"/>
					<p>17 47 234 16 47 235 33 47 236 33 47 237 48 47 238 17 47 239</p>
				</triangles>
				<triangles count="8" material="bigCola_png_001">
					<input offset="0" semantic="VERTEX" source="#Cylinder_001-Vertex"/>
					<input offset="1" semantic="NORMAL" source="#Cylinder_001-Normals"/>
					<input offset="2" semantic="TEXCOORD" source="#Cylinder_001-UV"/>
					<p>23 41 198 22 41 199 43 41 200 43 41 201 42 41 202 23 41 203 22 42 204 21 42 205 44 42 206 44 42 207 43 42 208 22 42 209 21 43 210 20 43 211 45 43 212 45 43 213 44 43 214 21 43 215 20 44 216 19 44 217 46 44 218 46 44 219 45 44 220 20 44 221</p>
				</triangles>
				<triangles count="2" material="vasco_png">
					<input offset="0" semantic="VERTEX" source="#Cylinder_001-Vertex"/>
					<input offset="1" semantic="NORMAL" source="#Cylinder_001-Normals"/>
					<input offset="2" semantic="TEXCOORD" source="#Cylinder_001-UV"/>
					<p>30 34 156 29 34 157 36 34 158 36 34 159 35 34 160 30 34 161</p>
				</triangles>
				<triangles count="212">
					<input offset="0" semantic="VERTEX" source="#Cylinder_001-Vertex"/>
					<input offset="1" semantic="NORMAL" source="#Cylinder_001-Normals"/>
					<input offset="2" semantic="TEXCOORD" source="#Cylinder_001-UV"/>
					<p>32 0 0 0 0 1 1 0 2 32 1 3 1 1 4 2 1 5 32 2 6 2 2 7 3 2 8 32 3 9 3 3 10 4 3 11 32 4 12 4 4 13 5 4 14 32 5 15 5 5 16 6 5 17 32 6 18 6 6 19 7 6 20 32 7 21 7 7 22 8 7 23 32 8 24 8 8 25 9 8 26 32 9 27 9 9 28 10 9 29 32 10 30 10 10 31 11 10 32 32 11 33 11 11 34 12 11 35 32 12 36 12 12 37 13 12 38 32 13 39 13 13 40 14 13 41 32 14 42 14 14 43 15 14 44 15 15 45 0 15 46 32 15 47 0 16 48 16 16 49 17 16 50 17 16 51 1 16 52 0 16 53 1 17 54 17 17 55 18 17 56 18 17 57 2 17 58 1 17 59 2 18 60 18 18 61 19 18 62 19 18 63 3 18 64 2 18 65 3 19 66 19 19 67 20 19 68 20 19 69 4 19 70 3 19 71 4 20 72 20 20 73 21 20 74 21 20 75 5 20 76 4 20 77 5 21 78 21 21 79 22 21 80 22 21 81 6 21 82 5 21 83 6 22 84 22 22 85 23 22 86 23 22 87 7 22 88 6 22 89 7 23 90 23 23 91 24 23 92 24 23 93 8 23 94 7 23 95 8 24 96 24 24 97 25 24 98 25 24 99 9 24 100 8 24 101 9 25 102 25 25 103 26 25 104 26 25 105 10 25 106 9 25 107 10 26 108 26 26 109 27 26 110 27 26 111 11 26 112 10 26 113 11 27 114 27 27 115 28 27 116 28 27 117 12 27 118 11 27 119 12 28 120 28 28 121 29 28 122 29 28 123 13 28 124 12 28 125 13 29 126 29 29 127 30 29 128 30 29 129 14 29 130 13 29 131 14 30 132 30 30 133 31 30 134 31 30 135 15 30 136 14 30 137 16 31 138 0 31 139 15 31 140 15 31 141 31 31 142 16 31 143 16 32 144 31 32 145 34 32 146 34 32 147 33 32 148 16 32 149 31 33 150 30 33 151 35 33 152 35 33 153 34 33 154 31 33 155 29 35 162 28 35 163 37 35 164 37 35 165 36 35 166 29 35 167 28 36 168 27 36 169 38 36 170 38 36 171 37 36 172 28 36 173 27 37 174 26 37 175 39 37 176 39 37 177 38 37 178 27 37 179 26 38 180 25 38 181 40 38 182 40 38 183 39 38 184 26 38 185 25 39 186 24 39 187 41 39 188 41 39 189 40 39 190 25 39 191 24 40 192 23 40 193 42 40 194 42 40 195 41 40 196 24 40 197 19 45 222 18 45 223 47 45 224 47 45 225 46 45 226 19 45 227 18 46 228 17 46 229 48 46 230 48 46 231 47 46 232 18 46 233 48 48 240 33 48 241 49 48 242 49 48 243 50 48 244 48 48 245 47 49 246 48 49 247 50 49 248 50 49 249 51 49 250 47 49 251 46 50 252 47 50 253 51 50 254 51 50 255 52 50 256 46 50 257 45 51 258 46 51 259 52 51 260 52 51 261 53 51 262 45 51 263 44 52 264 45 52 265 53 52 266 53 52 267 54 52 268 44 52 269 43 53 270 44 53 271 54 53 272 54 53 273 55 53 274 43 53 275 42 54 276 43 54 277 55 54 278 55 54 279 56 54 280 42 54 281 41 55 282 42 55 283 56 55 284 56 55 285 57 55 286 41 55 287 40 56 288 41 56 289 57 56 290 57 56 291 58 56 292 40 56 293 39 57 294 40 57 295 58 57 296 58 57 297 59 57 298 39 57 299 38 58 300 39 58 301 59 58 302 59 58 303 60 58 304 38 58 305 37 59 306 38 59 307 60 59 308 60 59 309 61 59 310 37 59 311 36 60 312 37 60 313 61 60 314 61 60 315 62 60 316 36 60 317 35 61 318 36 61 319 62 61 320 62 61 321 63 61 322 35 61 323 34 62 324 35 62 325 63 62 326 63 62 327 64 62 328 34 62 329 33 63 330 34 63 331 64 63 332 64 63 333 49 63 334 33 63 335 49 64 336 64 64 337 65 64 338 65 64 339 66 64 340 49 64 341 64 65 342 63 65 343 67 65 344 67 65 345 65 65 346 64 65 347 63 66 348 62 66 349 68 66 350 68 66 351 67 66 352 63 66 353 62 67 354 61 67 355 69 67 356 69 67 357 68 67 358 62 67 359 61 68 360 60 68 361 70 68 362 70 68 363 69 68 364 61 68 365 60 69 366 59 69 367 71 69 368 71 69 369 70 69 370 60 69 371 59 70 372 58 70 373 72 70 374 72 70 375 71 70 376 59 70 377 58 71 378 57 71 379 73 71 380 73 71 381 72 71 382 58 71 383 57 72 384 56 72 385 74 72 386 74 72 387 73 72 388 57 72 389 56 73 390 55 73 391 75 73 392 75 73 393 74 73 394 56 73 395 55 74 396 54 74 397 76 74 398 76 74 399 75 74 400 55 74 401 54 75 402 53 75 403 77 75 404 77 75 405 76 75 406 54 75 407 53 76 408 52 76 409 78 76 410 78 76 411 77 76 412 53 76 413 52 77 414 51 77 415 79 77 416 79 77 417 78 77 418 52 77 419 51 78 420 50 78 421 80 78 422 80 78 423 79 78 424 51 78 425 50 79 426 49 79 427 66 79 428 66 79 429 80 79 430 50 79 431 80 80 432 66 80 433 81 80 434 81 80 435 82 80 436 80 80 437 79 81 438 80 81 439 82 81 440 82 81 441 83 81 442 79 81 443 78 82 444 79 82 445 83 82 446 83 82 447 84 82 448 78 82 449 77 83 450 78 83 451 84 83 452 84 83 453 85 83 454 77 83 455 76 84 456 77 84 457 85 84 458 85 84 459 86 84 460 76 84 461 75 85 462 76 85 463 86 85 464 86 85 465 87 85 466 75 85 467 74 86 468 75 86 469 87 86 470 87 86 471 88 86 472 74 86 473 73 87 474 74 87 475 88 87 476 88 87 477 89 87 478 73 87 479 72 88 480 73 88 481 89 88 482 89 88 483 90 88 484 72 88 485 71 89 486 72 89 487 90 89 488 90 89 489 91 89 490 71 89 491 70 90 492 71 90 493 91 90 494 91 90 495 92 90 496 70 90 497 69 91 498 70 91 499 92 91 500 92 91 501 93 91 502 69 91 503 68 92 504 69 92 505 93 92 506 93 92 507 94 92 508 68 92 509 67 93 510 68 93 511 94 93 512 94 93 513 95 93 514 67 93 515 65 94 516 67 94 517 95 94 518 95 94 519 96 94 520 65 94 521 66 95 522 65 95 523 96 95 524 96 95 525 81 95 526 66 95 527 81 96 528 96 96 529 98 96 530 98 96 531 97 96 532 81 96 533 96 97 534 95 97 535 99 97 536 99 97 537 98 97 538 96 97 539 95 98 540 94 98 541 100 98 542 100 98 543 99 98 544 95 98 545 94 99 546 93 99 547 101 99 548 101 99 549 100 99 550 94 99 551 93 100 552 92 100 553 102 100 554 102 100 555 101 100 556 93 100 557 92 101 558 91 101 559 103 101 560 103 101 561 102 101 562 92 101 563 91 102 564 90 102 565 104 102 566 104 102 567 103 102 568 91 102 569 90 103 570 89 103 571 105 103 572 105 103 573 104 103 574 90 103 575 89 104 576 88 104 577 106 104 578 106 104 579 105 104 580 89 104 581 88 105 582 87 105 583 107 105 584 107 105 585 106 105 586 88 105 587 87 106 588 86 106 589 108 106 590 108 106 591 107 106 592 87 106 593 86 107 594 85 107 595 109 107 596 109 107 597 108 107 598 86 107 599 85 108 600 84 108 601 110 108 602 110 108 603 109 108 604 85 108 605 84 109 606 83 109 607 111 109 608 111 109 609 110 109 610 84 109 611 83 110 612 82 110 613 112 110 614 112 110 615 111 110 616 83 110 617 82 111 618 81 111 619 97 111 620 97 111 621 112 111 622 82 111 623 113 112 624 97 112 625 98 112 626 113 113 627 98 113 628 99 113 629 113 114 630 99 114 631 100 114 632 113 115 633 100 115 634 101 115 635 113 116 636 101 116 637 102 116 638 113 117 639 102 117 640 103 117 641 113 118 642 103 118 643 104 118 644 113 119 645 104 119 646 105 119 647 113 120 648 105 120 649 106 120 650 113 121 651 106 121 652 107 121 653 113 122 654 107 122 655 108 122 656 113 123 657 108 123 658 109 123 659 113 124 660 109 124 661 110 124 662 113 125 663 110 125 664 111 125 665 113 126 666 111 126 667 112 126 668 113 127 669 112 127 670 97 127 671</p>
				</triangles>
			</mesh>
		</geometry>
	</library_geometries>
	<library_visual_scenes>
		<visual_scene id="Scene" name="Scene">
			<node layer="L1" id="Cylinder" name="Cylinder">
				<matrix>
					1.0 0.0 0.0 0.0 
					0.0 1.0 0.0 0.0 
					0.0 0.0 1.0 0.0 
					0.0 0.0 0.0 1.0 
				</matrix>
				<instance_geometry url="#Cylinder_001">
					<bind_material>
						<technique_common>
							<instance_material symbol="info_png" target="#info_png">
								<bind_vertex_input input_semantic="TEXCOORD" input_set="1" semantic="CHANNEL1"/>
							</instance_material>
							<instance_material symbol="bigCola_png_001" target="#bigCola_png_001">
								<bind_vertex_input input_semantic="TEXCOORD" input_set="1" semantic="CHANNEL1"/>
							</instance_material>
							<instance_material symbol="vasco_png" target="#vasco_png">
								<bind_vertex_input input_semantic="TEXCOORD" input_set="1" semantic="CHANNEL1"/>
							</instance_material>
						</technique_common>
					</bind_material>
				</instance_geometry>
			</node>
			<node layer="L1" id="Lamp" name="Lamp">
				<matrix>
					-0.29086 -0.7711 0.56639 4.07625 
					0.95517 -0.19988 0.21839 1.00545 
					-0.05519 0.60452 0.79467 5.90386 
					0.0 0.0 0.0 1.0 
				</matrix>
				<instance_light url="#Spot"/>
			</node>
			<node layer="L1" id="Camera" name="Camera">
				<matrix>
					0.68588 -0.31737 0.65486 7.48113 
					0.72763 0.31247 -0.61067 -6.50764 
					-0.01082 0.89534 0.44525 5.34367 
					0.0 0.0 0.0 1.0 
				</matrix>
				<instance_camera url="#Camera-Camera"/>
			</node>
		</visual_scene>
	</library_visual_scenes>
	<scene>
		<instance_visual_scene url="#Scene"/>
	</scene>
</COLLADA>