<?xml version="1.0" encoding="UTF-8"?>
<!DOCTYPE svg PUBLIC "-//W3C//DTD SVG 1.1//EN" "http://www.w3.org/Graphics/SVG/1.1/DTD/svg11.dtd">
<!-- Creator: CorelDRAW -->
<svg xmlns="http://www.w3.org/2000/svg" xml:space="preserve" width="11.7686mm" height="7.112mm" style="shape-rendering: geometricprecision; text-rendering: geometricprecision; image-rendering: optimizequality; fill-rule: evenodd; clip-rule: evenodd;" viewBox="0 0 1.21469 0.734063" xmlns:xlink="http://www.w3.org/1999/xlink">
 <defs>
   <clipPath id="id0">
    <rect width="1.21469" height="0.734063"/>
   </clipPath>
 </defs>
 <g id="Camada_x0020_1">
  <metadata id="CorelCorpID_0Corel-Layer"/>
  <g style="clip-path: url(&quot;#id0&quot;);">
   <image transform="matrix(1, 0, 0, 1, -5.8843, -8.48622)" x="5.8843" y="8.48622" width="1.21469" height="0.734063" xlink:href="data:image/png;base64,iVBORw0KGgoAAAANSUhEUgAAADkAAAAjCAIAAAHWMAW5AAAACXBIWXMA ABLqAAATOQG9HzM0AAAReElEQVR4nK1YCVhTR9e+CTd7QiAsCRDZFwO4ICCoCAKioKAoKu4LLp/Q auWr1KpVqK1LLW5YEaUurQsuqIDgisoiisqO7DuEBAiBkH3PN+n1R239/dr/+c/DczN35sy5Z86c ed85wND/IjAKhZq3Mr6J3R+blMivq33ZoGLZ0n5JCIV1Ot0bp2Abo5bVE8wyMP6Swt1mE+ag0Wj9 jMJ/B0LoGYHRG2wnR85etntPpI3eFJjhRCaCFtrSu+pudNboNz79ZQ8Pjx0XcrPbpNqMb01Dt+em n2YZ9cFHU8/1jfDmTBq376Z9DHn4SFrqkbiZsAnDKjH9xQhF+/rsnm+OZSpJgpcvS+HxdnTElvHO D+wiPwUFBbm5uWFhYcHBwcBj4LhWqwX9eDweg8Ho1wHDfD5fr71l73E2xXbu5h2rFsV8c7+DxSBe ST2xL/GbAYHi8YuWhtr25G/nPcgp3R0XptdOTvrqhVD9bezuQzfOF/ag07fOv5KVW9cv5HR2F/3+ /YkLF63w0J4v54Jg6LUNCXgLC4uurq71t0+Eh4eTGHbLtx/esy4iPipYqVQGOVn92e+/I3rVy5cv 5+XlsVisnJyc8vJyAwMDjUaDDJNIJLA4sFyJRAKDxb6o6ZFE7HzT29EBVa7Nuus3Bn/y5C8Jq5ZK DODbGQ9kwyNHD670c3OCVSoVh9MTtoxu5GQYFnkVx+2yIes4xbfEcZtlAmlv/e3gqHgHuolcLofX xu+LjI31Y2Bcpq498fDeLB975/AvOS2VvxZwB5pekXEG+zcH84aEVCoVHu8XaYZHL7vSRPaOcMFJ 6zr7Cc5+bT2DXexWZWfV/tTzJWV1S+bOEAiE8MVfLk47+5WtEbWh9E6xfMO5VWtR1LHBa6qPfhmo nLGgqt8wc+dSoKePQG3BsfCpl9RqtUAgOBM8Dufg5TcrGK1E/5S0s62tTSqVvg8W2Akej4e8NDU1 Qc2ttQ8zdRrFp+M6KgEBAd99911ISMjixYtDQ0Pt7e0DAwP/69aAVBttgw+/twv2AewLsNLW2hKz bo25memDB/dzcrLBFENDCgaGHZ2cdFqtXK4YkSg0KAwOixUKhSQyCdZqUGgNxthRpZabMBzGWUJ5 uXdFIpFMJtPbBSHA4wneocvFDl7J0T5nHjUcy6617s0T9PMSMzJthK3FqIlqJSQovfaysiE/bW9x +xCNRjt07AG3pcfGknk/ff6K+PM/745SQAQe2vHR74nv/AXOR8V+az/BO5+tNCDi80Rkw8Zs2ITp tCJuM8tob7V3y/N7JT/GjJ23YfuqECIFF+1hldukzDk4KyxqeU3Z0MqDpnWNbEtTGjC0YdHkx5dQ wFG93fgfUog4OGaOt7RSEHyx+fQSu4gDIpKHZ0Kw9Rclkp+nEXPJUx9cDqh9VbosLYmARoMpsx1R xkw3G9dJO/funTvdo3+1N+jcvL/0zsnFyEbD5tZeHWzpxZNfUzGwqVa6PXBMs9Agq+qRPx5KKuwS Vz4pHB+5Z1OssyU5MzUlMe9t3HiTMUwLDIwRcztT71c/qR54xXkbE2TF8PASCIUKxbvcgAe6y+6d rw4ou7Ng+SY1Sn3h+IG+3m40hqzRwiickaHdBElbiTlJFf3TT/39gu3TrJNv5v+4Otzbe7JUJutk 9yskApAPVz7IhPf5oFSpaipegz+ggQxr5CLwpBK0grfZNYQAbkfvdZLMMb0L+n2Vivf62BYDEMHR Y/4nix/lLzL2J42RkRHwbH9VAJ7WTJvRfmBU/+3/wY5Pyj+Apr8v740+e/Zs27Ztx44dGxgYABjE ZDL/zkmDPj5sANHBIt4bPXLkyPHjx4OCgpYsWVJRUdHS0oJQAMIFQAGhgw/n43A4EF/QAGcVgDOI DMgEoK9nPIBkQAkMb4hZN8bK6tHDByq1GkwADuBwWCKJaGU1BlgcGhGD6cAxpQZSKmVGNHOVsA9v ZKnFUggkE610cG7gpIyMjP7+fr1RMH/58mUcJcNtw9nNnuSMUm7Jw8fyuucywfCU+GQWnudmSfP2 HhvzRaKKbL4/Zt6zFoGrg8XTos6yy7vGz9+2al0oVmnQ0d5IpRpfvXoVfF4P+iCIWjPXqUzzAVPo 1LNOqL1e21RGJUGMtaelLY9dprCmuVv+uGUzpDScZq6xoFO/dGDYUAkXTjz125gW5Gkr5kHDfE6g h60xHgL8AVasjymZTBrg9g/be+52JIfb4rom0n56/bCtombxRtmMJXMsKZgblbxx/rMbi9+6hCwj ojHV3eLfOgfwFpQ3ObvaS5mbYjaZYSEG1UIqU5ubmTU0NuqNegcvd3aymeBMfS1GiQwoGfVSXls7 KyCERjMZxhkPDwlIOOjm82oiSudmjcMRMX2Dw5nnrx5JmBn7fEQrV53LbQr0cZsulhDQmokeE98Z 9Zw6hW5musDDIYMH1TQKuKlfKbFGzJVJhwNJvmcrTgWYzJk3A+MSsHlFuDudWtHYW9zIXhkTVPai hM6wINks8pjgMj/QvmOQSzbQ3bt3H/AobADjAKFNCguOz3ylhnG7ZrvnaGytPUic8vIgvn3RJq8l WYMeYYtqeuURCyNWnKtufNwctdX/7r03fS/y7ewd/H3IeJJsDEGZKzTaEeUOYFuPhOP8V/iFRTlA ivh5nkUCVOi+bArUQ7FYOkwx3xlguCGt2BXiXO8aIuBJPQo4Ncqh1s+UgVFFrp8R//KMrefqqV52 jmQNjMFOYQwM8fnv8pRAMj2T/MPFMweetPL4Ak3BrtmTk62f5d7Iux7Q1tElxBsf3Ro5IXzN+q2r a9kiU2OlzNz62oOm1prCY7fvLl6WtnC6Ya8cauT2z/GeOIoysESmk4ogXk//bDvzlwL1vH05lJLL 61fF7bjPE+U/CQ1znhI8izzGxNvR2sWQgjZA3TidtTjA3TxgMqwTJyX4DumMWQySrRnxo7Nf+yS5 nUxZK+5dsHRhRcmLhitnxBJlfXmh1oBEpDss3HN2SQpX9vRJKezfu8dz3+OahIWT31TVfr/tUNHz V2qVQqfTjiLAe5YFLZlU0lT+5FD5E0CQYrFYr6FVYiApPCxeGR0BE+k3Hz6/+qLB/4dbfi50iQ61 Ye0qAoGgUb+3CH2MnDCCFFwud/RTuj8EABUWi8VQbF0czXubK/lV7MenNwN+TtOJwQXpQ78+DX2f BGnwCrwW1+Rz3xILc+5qVULDS9tBv+rzODhq9HMCbGskus/B/D83amJiAp7gGv3PrP6/ymioP+Er 8O/QoUMlJSWzZ8+uq6urqqoCd2YikQgqAwDwCQkJgGjmz58PWOKvRj98/cxejiojrDL6CoAT5A2S K6P94FQh7sLIO0JJSDECsiY+Pt7c3DwrK0v7h4BSBRzsmTNnIlRVW1ubkpKCzAJXSaAPGiAHKRQK ICxgGqQk6AToAtp6MoBh0AaaAMYB04AeQGJgCCiPhg14ijbQGwGjKpUahAakH7hUgSHwBDF6H1eg BCy6u7u7ubkxWb5l5VUSucoGpZP4LD69bSa3e/BstbSrrGJEJGG6uFZ/F0zxXozCgvqhhuoe4L8u Fua0ODpa0iElH8dc4IHftjG+28BSIZOIJXJ0T/nBU78qRapGobKzvXfaFHcjnO5RUTe3rZXTXqQc 4phbuzTX92QWZMQu3bkmPj73+k3fgMkCmUohEjTn/Qzu9AivQ0g5CwREAnTV1NSYuUwhK9RM53Gt 5SXpGem2JOyMjK5Hy2zmOkBNQSbRl7qqDi5EmzhL22uxeOzknRfurrRbmjXoZO6QX/j8+Br/t5z+ k7eErnaWPRwDpULOuZ/2pksgAniLp7T3NzW+Yo8by0z/rRDSKq1saAyrsBrOLUNzr+yUgweTMxJ/ 3h/E0q0I3Lox4YIWRcxOWbK47Ep9fT3YgXf5iiQHkiWHT51XoLAyqYzH4az5/hCkRd1o5if508rb Bu40DHb29LN//oJqaisaFhCZ1mO3HrWmY0JPv06awxQPS019xz2sqLN2n9Cybwvfxl861IeDDS4W t5oTlPeaB6ZP0tnaG25NCOKPqDxmTOSNKEJ9LXQEwxVrJrMF6vzspzMme5w9e87rQAxON3I8cSEF h2EPDjt6RUhFgqbm5sHBQX3B92G+l9V1GBsbdba0Gm1IosNDT1v5RhQCf0ic02ew19ey3cKgxMRe odDh6RZ38q8VldQ7GhHWzx1zobg5KjzAF4ZahI4nvo7DMb2tKFganiEW8CGcslmoSohg7S8UhLvZ uJlCl8qUsYscf8+uzzz0VWvfiEKtxWoUIZtSd0XSKFT/iqY+ayuih5UpTzDSJiC7uI+7f7mXzWYj x+adrziC4Zq4LTSGafaV3xIuZYXbEbbnDc3ydfUyVO8oUI7VdF0o0Pyy9ygahV0QFaicubFuQPmv AMcyPnS9rnv61Ek6dqsl3fj4kbSu9iaNlipv73UwIV765QcMAXv3zQiXw6XIsLvTXviOxWAIJtdq Cc6qohYLR2n3K5qtE9XEx97R9uDvXWe/9s2plbx8mi90dQBYRNMNrfzXHAIejxzHdxUcyNf4pENT QsLG03FDY3zm2ZOK37ZZWDussCZ8Uyl3cLLskVjkfx0HKSWmLhNvEIOdqtolvfALS/puH6yCbG1N Q/vaOf77dv3Ni7+yAub2cbpwJsznxT0+ay78dmDeHJ8x1rApSLfSRmHkXHdxW/X0aN/AiEUdHd0Y GR9S2jn5TEg9ezs5IQQkoaelOtx9vkgqoZJInP5B4GZPTw8CJu9wYNbyhInT/UXtb881UrfNnohC GVTxZCiyJP5e/9W64RvRrDO3b6AhPMHMym1lnNtAd7sIv8DX6lG/OLEYF22vo+iIScW8tttHGJFb RBgCCdXGsiSnp6Q5ETSFbLXLiHjFtcq4UAdfT3TF60omnW7lNB5iuCnq6pQ42ulz5zncvl3RE01w 2EGplKfE4KSS5pbeYydTn2ZdAuUNiCNylvS+4snGYF8KHhZf/zWlqqWKTMDSIGhjyLiK+g6pkQG3 BypuGxq0CiGHj18f4GpoQzl/VeHHwu662+fJIqX422FQUEUnZ5ygzWpBVGvmE4DPUn7P4XMXrSH1 N5eKwidZl7YSL33hT59/yMp92ptEnz05nI7KYlBJVTYvOHmbjxZxprlaZRY0zrIn5Ve1xkQGAnCN 3bCmprwUeAmoAam6EAG3OCKf223J8LVheSpFYh5P8VapoxlRyUSSCMLZMCF+//Akonx4guODoztJ rOCHu+euu9G9Zplr3rmnW9AEw4EqKqx4cvk8wdJBLuBrlIqHD27TICWMIVRwUScnu4f89KDoVcPR zf7GTPr29EcH1gVN+TIta/+q52zqpnlymOHEU6gbeMZfR9gN4pjGFDKAeQCgCO196KjeV9FQ78u8 VAKZTCSb1lc3jHd3wckUWEjtYmuGFqHdaPDyJUkMC6u22goNwdbLH3u4qOPUUvuLnephPL1ymcPm tEFXo563djYoudBlqvft3Potv9aVHI7b9lvmjnlTMJDmVuyUa7nPZEPdZgyzV/ez/bLv+Hs77z1f QGd57D5b5xNgIWJXtj88g1p/HTk5f/LvI1//0ICe3TgMqGv1swuAWhHmBDQIcBisEmBbOwqFlPu9 b84BYkzH45FKz+uRuZeX587iVs9JTmqdLiYskGI7lmosoG/dxO54a4oRJLcZLfC2X7dgZkjkos6G fzs7O9e8fl1XoEYoHiTi85SPrg2fv0K8uxGCmUjhCaABZAl4Ba4D+tbf3T4o+5F1g37wGTKZDBbT gTbFE9HNXX1mZFTonA2Y6ET5mRkkC4/A9AsZl8pxbj6ssZrk49/Vvi4FdoqKioBZJHJ/qoL/jnz0 XwYEcpF0AU7/da2jNyCkNMVSLZlmJJVg2BCnEVLtGSxzG3Q73TVQ5hj9+uCp4fKruluKiEQNQuMI rSPFzefj9198/atbnxfk30ryYXbNPfaH/ZxS5LeA97HZDy/z/zdHgfwHkufym9Lq3qsAAAAASUVO RK5CYII="/>
  </g>
 </g>
</svg>