"Lux Gotas de Beleza","superlux","SuperLux","335818094","LUXG"
"Pepsi Cae Bien","pepsicaebien_1.0_es","Pepsi Cae Bien","321126785","PECB"
"Pepsi Cai Bem","PepsiCaiBem_ptbr_1.0","Pepsi Cai Bem","318034658","PCBB"
"Brazooka Soccer","BrazookaSoccer","Brazooka Soccer","329181641","BRAZ"
"Brazooka Soccer BR","BrazookaSoccerBR","Brazooka Soccer BR","329184705","BRAB"
"Space Goo","SPACE_GOO","Space Goo","302560726","SGOO"